# Blender v2.79 (sub 0) OBJ File: 'egg.blend'
# www.blender.org
mtllib egg.mtl
o egg_Icosphere
v 0.000000 -1.678647 0.000000
v 0.723607 -1.125866 0.525725
v -0.276388 -1.125867 0.850649
v -0.894426 -1.125862 0.000000
v -0.276388 -1.125867 -0.850649
v 0.723607 -1.125866 -0.525725
v 0.276388 0.068573 0.850649
v -0.723607 0.068573 0.525725
v -0.723607 0.068573 -0.525725
v 0.276388 0.068573 -0.850649
v 0.894426 0.068569 0.000000
v 0.000000 1.221353 0.000000
v -0.162456 -1.529301 0.499995
v 0.425323 -1.529301 0.309011
v 0.262869 -1.204384 0.809012
v 0.850648 -1.204383 0.000000
v 0.425323 -1.529301 -0.309011
v -0.525730 -1.529298 0.000000
v -0.688189 -1.204383 0.499997
v -0.162456 -1.529301 -0.499995
v -0.688189 -1.204383 -0.499997
v 0.262869 -1.204384 -0.809012
v 0.951058 -0.678647 0.309013
v 0.951058 -0.678647 -0.309013
v 0.000000 -0.678647 1.000000
v 0.587786 -0.678647 0.809017
v -0.951058 -0.678647 0.309013
v -0.587786 -0.678647 0.809017
v -0.587786 -0.678647 -0.809017
v -0.951058 -0.678647 -0.309013
v 0.587786 -0.678647 -0.809017
v 0.000000 -0.678647 -1.000000
v 0.688189 0.147090 0.499997
v -0.262869 0.147091 0.809012
v -0.850648 0.147089 0.000000
v -0.262869 0.147091 -0.809012
v 0.688189 0.147090 -0.499997
v 0.162456 0.972008 0.499995
v 0.525730 0.972005 0.000000
v -0.425323 0.972008 0.309011
v -0.425323 0.972008 -0.309011
v 0.162456 0.972008 -0.499995
vt 0.218031 0.662373
vt 0.104403 0.654078
vt 0.178744 0.566396
vt 0.000000 0.662374
vt 0.041860 0.762976
vt 0.290303 0.621103
vt 0.284907 0.742597
vt 0.170015 0.762975
vt 0.153853 0.497120
vt 0.057077 0.502883
vt 0.090831 0.404703
vt 0.351233 0.490956
vt 0.263924 0.513199
vt 0.334688 0.407455
vt 0.480432 0.052092
vt 0.583214 0.093669
vt 0.471131 0.155658
vt 0.889764 0.897470
vt 0.776813 0.916735
vt 0.831080 0.803325
vt 0.804518 0.488890
vt 0.705029 0.456418
vt 0.767296 0.394069
vt 0.218672 0.411078
vt 0.671118 0.160134
vt 0.676270 0.266559
vt 0.583214 0.219164
vt 0.382837 0.100299
vt 0.951705 0.807709
vt 0.890951 0.432115
vt 0.276163 0.256444
vt 0.163514 0.238186
vt 0.247453 0.063980
vt 0.448827 0.318459
vt 0.532583 0.381412
vt 0.356072 0.473614
vt 0.571860 0.793627
vt 0.461546 0.799829
vt 0.526386 0.617738
vt 0.971988 0.666550
vt 0.878658 0.642699
vt 0.901287 0.493274
vt 0.983413 0.294199
vt 0.879642 0.257476
vt 1.000000 0.096200
vt 0.876347 0.058154
vt 0.963228 0.000000
vt 0.773040 0.229471
vt 0.566461 0.535167
vt 0.461546 0.521009
vt 0.780664 0.488890
vt 0.766769 0.659091
vt 0.396706 0.617738
vt 0.351233 0.793627
vt 0.356632 0.535167
vt 0.449128 0.521009
vt 0.351233 0.232323
vt 0.119614 0.057606
vt 0.199872 0.000000
vt 0.058669 0.245599
vt 0.526387 0.936397
vt 0.396706 0.936397
vt 0.351233 0.278657
vt 0.676270 0.335528
vt 0.971988 0.923829
vt 0.705591 0.812117
vt 0.676270 0.912427
vt 1.000000 0.435134
vt 0.000000 0.390765
vt 0.111627 0.847642
vt 0.015004 0.851495
vt 0.222365 0.851495
vt 0.863899 0.991209
vt 0.738411 1.000000
vt 0.564188 0.000000
vt 0.676270 0.063505
vt 0.050588 0.566396
vt 0.126477 0.513199
usemtl Material.001
s off
f 1/1 14/2 13/3
f 2/4 14/2 16/5
f 1/1 13/3 18/6
f 1/1 18/6 20/7
f 1/1 20/7 17/8
f 2/9 16/10 23/11
f 3/12 15/13 25/14
f 4/15 19/16 27/17
f 5/18 21/19 29/20
f 6/21 22/22 31/23
f 2/9 23/11 26/24
f 3/25 25/26 28/27
f 4/15 27/17 30/28
f 5/18 29/20 32/29
f 6/21 31/23 24/30
f 7/31 33/32 38/33
f 8/34 34/35 40/36
f 9/37 35/38 41/39
f 10/40 36/41 42/42
f 11/43 37/44 39/45
f 39/45 42/46 12/47
f 39/45 37/44 42/46
f 37/44 10/48 42/46
f 42/49 41/39 12/50
f 42/42 36/41 41/51
f 36/41 9/52 41/51
f 41/39 40/53 12/50
f 41/39 35/38 40/53
f 35/38 8/54 40/53
f 40/53 38/55 12/50
f 40/36 34/35 38/56
f 34/57 7/31 38/33
f 38/33 39/58 12/59
f 38/33 33/32 39/58
f 33/32 11/60 39/58
f 24/30 37/44 11/43
f 24/30 31/23 37/44
f 31/23 10/48 37/44
f 32/29 36/41 10/40
f 32/29 29/20 36/41
f 29/20 9/52 36/41
f 30/61 35/38 9/37
f 30/61 27/62 35/38
f 27/17 8/34 35/63
f 28/27 34/35 8/34
f 28/27 25/26 34/35
f 25/14 7/31 34/57
f 26/24 33/32 7/31
f 26/24 23/11 33/32
f 23/11 11/60 33/32
f 31/23 32/64 10/48
f 31/23 22/22 32/64
f 22/65 5/18 32/29
f 29/20 30/66 9/52
f 29/20 21/19 30/66
f 21/19 4/67 30/66
f 27/17 28/27 8/34
f 27/17 19/16 28/27
f 19/16 3/25 28/27
f 25/14 26/24 7/31
f 25/14 15/13 26/24
f 15/13 2/9 26/24
f 23/68 24/30 11/43
f 23/11 16/10 24/69
f 16/5 6/70 24/71
f 17/8 22/72 6/70
f 17/8 20/7 22/72
f 20/73 5/18 22/65
f 20/73 21/19 5/18
f 20/73 18/74 21/19
f 18/74 4/67 21/19
f 18/75 19/16 4/15
f 18/75 13/76 19/16
f 13/76 3/25 19/16
f 16/5 17/8 6/70
f 16/5 14/2 17/8
f 14/2 1/1 17/8
f 13/3 15/77 3/78
f 13/3 14/2 15/77
f 14/2 2/4 15/77
