# Blender v2.79 (sub 0) OBJ File: 'skytree.blend'
# www.blender.org
mtllib skytree.mtl
o Tokyo_Skytree_Cylinder:001
v -0.029778 0.014300 1.033240
v -0.029778 9.307031 0.398952
v -0.324848 9.307031 0.276732
v -0.773358 0.014301 0.725240
v -0.447068 9.307031 -0.018339
v -1.081368 0.014301 -0.018340
v -0.324848 9.307031 -0.313409
v -0.773358 0.014301 -0.761930
v -0.029778 9.307031 -0.435638
v -0.029778 0.014301 -1.069930
v 0.265292 9.307031 -0.313409
v 0.387512 9.307031 -0.018339
v 1.021812 0.014301 -0.018340
v 0.265292 9.307031 0.276732
v 0.713802 0.014301 0.725240
v -0.622658 10.595230 -0.611218
v 0.808682 10.595230 -0.018338
v 0.563102 10.595230 0.574542
v -0.622658 10.595230 0.574542
v -0.868238 10.595230 -0.018338
v -0.029778 10.595230 -0.856798
v -0.029778 10.595230 0.820122
v 0.563102 10.595230 -0.611218
v -0.449678 10.656570 -0.018338
v -0.326688 10.656570 -0.315258
v 0.390122 10.656570 -0.018338
v 0.390122 13.962260 -0.018338
v 0.267142 13.962260 0.278572
v -0.029778 10.656570 0.401562
v 0.267142 10.656570 0.278572
v 0.267142 10.656570 -0.315258
v -0.326688 10.656570 0.278572
v -0.029778 10.656570 -0.438238
v -0.029778 13.962260 -0.438238
v -0.326688 13.962260 -0.315258
v -0.154908 14.047450 -0.143478
v -0.449678 13.962260 -0.018338
v -0.029778 13.962260 0.401562
v -0.326688 13.962260 0.278572
v 0.267142 13.962260 -0.315258
v -0.029778 14.047450 0.158622
v 0.095362 14.047450 0.106792
v 0.095362 17.698570 0.106793
v -0.154908 14.047450 0.106792
v 0.147192 14.047450 -0.018338
v -0.029778 14.047450 -0.195308
v -0.206738 14.047450 -0.018338
v 0.095362 14.047450 -0.143478
v 0.147192 17.698570 -0.018337
v -0.154908 17.698570 -0.143477
v 0.095362 17.698570 -0.143477
v -0.154908 17.698570 0.106793
v -0.029778 17.698570 -0.195307
v -0.206738 17.698570 -0.018337
v -0.029778 17.698570 0.158623
v 0.713802 0.014301 -0.761930
vt 0.090788 0.969907
vt 0.161945 0.143215
vt 0.190713 0.143594
vt 0.161991 0.969907
vt 0.219426 0.144983
vt 0.233141 0.969907
vt 0.247641 0.147678
vt 0.338610 0.969907
vt 0.393207 0.143472
vt 0.421819 0.141011
vt 0.409413 0.969907
vt 0.450583 0.139521
vt 0.479333 0.139067
vt 0.551612 0.969907
vt 0.508043 0.139289
vt 0.622844 0.969907
vt 0.019531 0.969907
vt 0.133376 0.143798
vt 0.338610 0.027454
vt 0.499779 0.027454
vt 0.552176 0.027454
vt 0.195613 0.027454
vt 0.249698 0.027454
vt 0.391895 0.027454
vt 0.087706 0.027454
vt 0.141328 0.027454
vt 0.445735 0.027454
vt 0.609933 0.466448
vt 0.624221 0.431829
vt 0.652612 0.431826
vt 0.789208 0.312233
vt 0.789208 0.019531
vt 0.817663 0.019531
vt 0.569542 0.426147
vt 0.569510 0.369100
vt 0.604100 0.383384
vt 0.609804 0.328699
vt 0.624180 0.363328
vt 0.666895 0.328672
vt 0.707256 0.369022
vt 0.672642 0.383330
vt 0.707256 0.426069
vt 0.666949 0.466395
vt 0.604166 0.411762
vt 0.652554 0.363276
vt 0.672662 0.411720
vt 0.746841 0.399099
vt 0.726215 0.378471
vt 0.747251 0.369864
vt 0.760751 0.312233
vt 0.732295 0.312233
vt 0.732295 0.019531
vt 0.683336 0.312233
vt 0.654879 0.312233
vt 0.654879 0.019531
vt 0.597967 0.312233
vt 0.597967 0.019531
vt 0.626423 0.019531
vt 0.569510 0.312233
vt 0.569510 0.019531
vt 0.760751 0.019531
vt 0.703839 0.312233
vt 0.703839 0.019531
vt 0.626423 0.312233
vt 0.896084 0.342819
vt 0.884090 0.342819
vt 0.884090 0.019531
vt 0.726215 0.349303
vt 0.746838 0.328674
vt 0.755450 0.349710
vt 0.796637 0.349299
vt 0.796637 0.378469
vt 0.775674 0.369683
vt 0.776012 0.399098
vt 0.755628 0.378136
vt 0.747180 0.358089
vt 0.776010 0.328672
vt 0.767223 0.349636
vt 0.775601 0.357909
vt 0.767402 0.378061
vt 0.816262 0.337153
vt 0.845215 0.337152
vt 0.816262 0.349146
vt 0.900698 0.342819
vt 0.888704 0.342819
vt 0.888704 0.019531
vt 0.876711 0.342819
vt 0.864719 0.342819
vt 0.864719 0.019531
vt 0.920069 0.342819
vt 0.908076 0.342819
vt 0.908076 0.019531
vt 0.912690 0.342819
vt 0.900698 0.019531
vt 0.876711 0.019531
vt 0.932062 0.342819
vt 0.920069 0.019531
vt 0.896084 0.019531
vt 0.304254 0.969907
vt 0.480443 0.969907
vt 0.304254 0.027454
vt 0.817663 0.312233
vt 0.683336 0.019531
vt 0.824743 0.357626
vt 0.836736 0.357625
vt 0.845215 0.349145
vt 0.824742 0.328672
vt 0.836735 0.328672
vt 0.912690 0.019531
vt 0.932062 0.019531
usemtl Material.001
s 1
f 1/1 2/2 3/3
f 4/4 3/3 5/5
f 6/6 5/5 7/7
f 8/8 7/9 9/10
f 10/11 9/10 11/12
f 11/12 12/13 13/14
f 12/13 14/15 15/16
f 15/17 14/18 2/2
f 9/10 7/9 16/19
f 12/13 17/20 18/21
f 3/3 19/22 20/23
f 11/12 9/10 21/24
f 14/18 18/25 22/26
f 2/2 22/26 19/22
f 7/7 5/5 20/23
f 12/13 11/12 23/27
f 20/28 24/29 25/30
f 26/31 27/32 28/33
f 19/34 22/35 29/36
f 18/37 30/38 29/36
f 17/39 23/40 31/41
f 21/42 16/43 25/30
f 19/34 32/44 24/29
f 18/37 17/39 26/45
f 23/40 21/42 33/46
f 34/47 35/48 36/49
f 31/50 33/51 34/52
f 25/53 24/54 37/55
f 29/56 38/57 39/58
f 30/59 28/60 38/57
f 26/31 31/50 40/61
f 33/51 25/62 35/63
f 32/64 39/58 37/55
f 41/65 42/66 43/67
f 37/68 39/69 44/70
f 28/71 27/72 45/73
f 40/74 34/47 46/75
f 35/48 37/68 47/76
f 39/69 38/77 41/78
f 38/77 28/71 42/79
f 27/72 40/74 48/80
f 49/81 50/82 43/83
f 45/84 48/85 51/86
f 46/87 36/88 50/89
f 47/90 44/91 52/92
f 42/93 45/84 49/94
f 48/85 46/87 53/95
f 36/96 47/90 54/97
f 44/91 41/65 55/98
f 1/1 3/3 4/4
f 4/4 5/5 6/6
f 6/6 7/7 8/99
f 8/8 9/10 10/11
f 10/11 11/12 56/100
f 11/12 13/14 56/100
f 12/13 15/16 13/14
f 15/17 2/2 1/1
f 9/10 16/19 21/24
f 12/13 18/21 14/15
f 3/3 20/23 5/5
f 11/12 21/24 23/27
f 14/18 22/26 2/2
f 2/2 19/22 3/3
f 7/7 20/23 16/101
f 12/13 23/27 17/20
f 20/28 25/30 16/43
f 26/31 28/33 30/102
f 19/34 29/36 32/44
f 18/37 29/36 22/35
f 17/39 31/41 26/45
f 21/42 25/30 33/46
f 19/34 24/29 20/28
f 18/37 26/45 30/38
f 23/40 33/46 31/41
f 34/47 36/49 46/75
f 31/50 34/52 40/61
f 25/53 37/55 35/103
f 29/56 39/58 32/64
f 30/59 38/57 29/56
f 26/31 40/61 27/32
f 33/51 35/63 34/52
f 32/64 37/55 24/54
f 41/65 43/67 55/98
f 37/68 44/70 47/76
f 28/71 45/73 42/79
f 40/74 46/75 48/80
f 35/48 47/76 36/49
f 39/69 41/78 44/70
f 38/77 42/79 41/78
f 27/72 48/80 45/73
f 43/83 50/82 55/104
f 55/104 50/82 52/105
f 52/105 50/82 54/106
f 50/82 51/107 53/108
f 51/107 50/82 49/81
f 45/84 51/86 49/94
f 46/87 50/89 53/95
f 47/90 52/92 54/97
f 42/93 49/94 43/109
f 48/85 53/95 51/86
f 36/96 54/97 50/110
f 44/91 55/98 52/92
