[
  {
    "c1x": 4.029230117797852,
    "c1y": -1.8314874172210693,
    "c1z": 4.322628974914551,
    "c2x": 7.0,
    "c2y": -2.0999999046325684,
    "c2z": 4.020375728607178,
    "ex": 7.0,
    "ey": -2.0999999046325684,
    "ez": 0.6499999761581421,
    "len": 4.123323058097939,
    "sx": 7.166999816894531,
    "sy": -4.75,
    "sz": 1.0829999446868896
  }
]