[
  {
    "c1x": -205.15048217773438,
    "c1y": 17.554107666015625,
    "c1z": 72.4279556274414,
    "c2x": -26.63306999206543,
    "c2y": 37.57661819458008,
    "c2z": 30.22467041015625,
    "ex": -7.672647476196289,
    "ey": 2.7014551162719727,
    "ez": 3.547281265258789,
    "len": 222.3665922986341,
    "sx": -165.66485595703125,
    "sy": 113.17681121826172,
    "sz": 29.026086807250977
  }
]